Capacity:	100
#Items:		35
Weights:	36	10	62	9	49	70	73	44	67	63	40	86	1	73	3	88	95	41	9	72	92	89	52	25	56	6	35	95	96	69	94	42	58	12	87	
Profits:	962	972	563	724	475	200	480	268	13	511	117	971	622	380	695	470	466	494	327	644	855	425	40	386	648	832	96	242	184	199	389	544	174	326	999	
Selected:	1	1	0	1	0	0	0	0	0	0	0	0	1	0	1	0	0	0	1	0	0	0	0	1	0	1	0	0	0	0	0	0	0	0	0	
Total profit:	5520
Total weight:	99
Time:		2895875ms
Iterations:	68719476735
----------------------------------
Capacity:	100
#Items:		35
Weights:	36	10	62	9	49	70	73	44	67	63	40	86	1	73	3	88	95	41	9	72	92	89	52	25	56	6	35	95	96	69	94	42	58	12	87	
Profits:	962	972	563	724	475	200	480	268	13	511	117	971	622	380	695	470	466	494	327	644	855	425	40	386	648	832	96	242	184	199	389	544	174	326	999	
Selected:	1	1	0	1	0	0	0	0	0	0	0	0	1	0	1	0	0	0	1	0	0	0	0	1	0	1	0	0	0	0	0	0	0	0	0	
Total profit:	5520
Total weight:	99
Time:		16ms
Iterations:	33019
----------------------------------
Capacity:	100
#Items:		35
Weights:	91	82	44	29	1	56	9	41	40	93	20	28	16	16	3	21	35	43	63	35	65	94	24	32	21	61	24	94	19	14	64	40	55	45	43	
Profits:	889	229	73	186	88	956	102	371	937	789	586	926	428	985	138	795	271	456	447	274	828	377	357	482	825	725	368	333	466	193	820	52	796	142	221	
Selected:	0	0	0	0	1	0	1	0	0	0	0	1	0	1	1	1	0	0	0	0	0	0	0	0	1	0	0	0	0	0	0	0	0	0	0	
Total profit:	3859
Total weight:	99
Time:		2469113ms
Iterations:	68719476735
----------------------------------
Capacity:	100
#Items:		35
Weights:	91	82	44	29	1	56	9	41	40	93	20	28	16	16	3	21	35	43	63	35	65	94	24	32	21	61	24	94	19	14	64	40	55	45	43	
Profits:	889	229	73	186	88	956	102	371	937	789	586	926	428	985	138	795	271	456	447	274	828	377	357	482	825	725	368	333	466	193	820	52	796	142	221	
Selected:	0	0	0	0	1	0	1	0	0	0	0	1	0	1	1	1	0	0	0	0	0	0	0	0	1	0	0	0	0	0	0	0	0	0	0	
Total profit:	3859
Total weight:	99
Time:		0ms
Iterations:	124242
----------------------------------
Capacity:	250
#Items:		35
Weights:	111	9	148	51	105	114	172	241	66	177	136	2	189	32	235	63	153	32	186	107	69	52	95	6	115	194	76	225	201	97	114	219	43	83	229	
Profits:	552	441	527	484	200	77	962	36	788	247	362	57	763	390	826	327	999	191	697	422	682	623	965	248	92	281	445	152	351	885	412	91	413	60	597	
Selected:	0	1	0	0	0	0	0	0	1	0	0	1	0	0	0	0	0	0	0	0	1	1	0	1	0	0	0	0	0	0	0	0	1	0	0	
Total profit:	3252
Total weight:	247
Time:		2497327ms
Iterations:	68719476735
----------------------------------
Capacity:	250
#Items:		35
Weights:	111	9	148	51	105	114	172	241	66	177	136	2	189	32	235	63	153	32	186	107	69	52	95	6	115	194	76	225	201	97	114	219	43	83	229	
Profits:	552	441	527	484	200	77	962	36	788	247	362	57	763	390	826	327	999	191	697	422	682	623	965	248	92	281	445	152	351	885	412	91	413	60	597	
Selected:	0	1	0	0	0	0	0	0	1	0	0	1	0	0	0	0	0	0	0	0	1	1	0	1	0	0	0	0	0	0	0	0	1	0	0	
Total profit:	3252
Total weight:	247
Time:		0ms
Iterations:	64938
----------------------------------
Capacity:	250
#Items:		35
Weights:	213	130	176	45	37	73	76	205	47	198	28	108	172	9	32	25	236	235	195	214	243	238	73	195	125	101	155	196	25	59	227	51	241	213	139	
Profits:	607	873	754	748	598	379	908	159	104	698	247	855	625	755	293	355	680	164	982	192	623	82	479	605	930	425	61	96	461	739	195	764	431	287	147	
Selected:	0	0	0	1	1	0	1	0	0	0	0	0	0	1	0	0	0	0	0	0	0	0	0	0	0	0	0	0	1	0	0	1	0	0	0	
Total profit:	4234
Total weight:	243
Time:		2469255ms
Iterations:	68719476735
----------------------------------
Capacity:	250
#Items:		35
Weights:	213	130	176	45	37	73	76	205	47	198	28	108	172	9	32	25	236	235	195	214	243	238	73	195	125	101	155	196	25	59	227	51	241	213	139	
Profits:	607	873	754	748	598	379	908	159	104	698	247	855	625	755	293	355	680	164	982	192	623	82	479	605	930	425	61	96	461	739	195	764	431	287	147	
Selected:	0	0	0	1	1	0	1	0	0	0	0	0	0	1	0	0	0	0	0	0	0	0	0	0	0	0	0	0	1	0	0	1	0	0	0	
Total profit:	4234
Total weight:	243
Time:		0ms
Iterations:	40475
----------------------------------
Capacity:	500
#Items:		35
Weights:	356	65	125	155	117	58	360	24	414	147	352	54	371	246	332	169	47	289	5	126	450	47	225	466	189	78	161	286	388	91	378	413	68	94	369	
Profits:	595	73	155	762	140	244	418	260	246	443	671	171	777	2	476	770	489	418	533	622	502	78	609	105	22	858	544	22	256	336	868	662	695	611	849	
Selected:	0	0	0	0	0	1	0	1	0	0	0	0	0	0	0	0	1	0	1	1	0	0	0	0	0	1	0	0	0	0	0	0	1	1	0	
Total profit:	4312
Total weight:	500
Time:		2469250ms
Iterations:	68719476735
----------------------------------
Capacity:	500
#Items:		35
Weights:	356	65	125	155	117	58	360	24	414	147	352	54	371	246	332	169	47	289	5	126	450	47	225	466	189	78	161	286	388	91	378	413	68	94	369	
Profits:	595	73	155	762	140	244	418	260	246	443	671	171	777	2	476	770	489	418	533	622	502	78	609	105	22	858	544	22	256	336	868	662	695	611	849	
Selected:	0	0	0	0	0	1	0	1	0	0	0	0	0	0	0	0	1	0	1	1	0	0	0	0	0	1	0	0	0	0	0	0	1	1	0	
Total profit:	4312
Total weight:	500
Time:		15ms
Iterations:	173082
----------------------------------
Capacity:	500
#Items:		35
Weights:	157	368	348	206	490	72	247	98	79	60	399	280	257	389	286	264	117	381	6	123	73	177	248	100	306	383	242	460	191	5	84	114	394	60	431	
Profits:	934	179	961	1	422	428	829	373	489	971	878	153	780	636	105	400	752	30	243	950	76	692	952	793	46	843	525	483	334	893	109	366	731	162	667	
Selected:	0	0	0	0	0	0	0	0	1	1	0	0	0	0	0	0	1	0	1	1	0	0	0	1	0	0	0	0	0	1	0	0	0	0	0	
Total profit:	5091
Total weight:	490
Time:		2469746ms
Iterations:	68719476735
----------------------------------
Capacity:	500
#Items:		35
Weights:	157	368	348	206	490	72	247	98	79	60	399	280	257	389	286	264	117	381	6	123	73	177	248	100	306	383	242	460	191	5	84	114	394	60	431	
Profits:	934	179	961	1	422	428	829	373	489	971	878	153	780	636	105	400	752	30	243	950	76	692	952	793	46	843	525	483	334	893	109	366	731	162	667	
Selected:	0	0	0	0	0	0	0	0	1	1	0	0	0	0	0	0	1	0	1	1	0	0	0	1	0	0	0	0	0	1	0	0	0	0	0	
Total profit:	5091
Total weight:	490
Time:		0ms
Iterations:	68783
----------------------------------
Capacity:	1000
#Items:		35
Weights:	393	920	639	437	760	671	586	277	683	819	380	576	848	525	400	944	318	883	155	633	884	438	273	879	547	799	753	135	221	752	195	222	983	507	972	
Profits:	690	710	453	181	893	945	441	826	621	143	18	108	270	795	47	200	113	720	191	970	311	510	735	433	346	239	590	621	698	52	898	105	799	489	913	
Selected:	0	0	0	0	0	0	0	1	0	0	0	0	0	0	0	0	0	0	1	0	0	0	0	0	0	0	0	1	1	0	1	0	0	0	0	
Total profit:	3234
Total weight:	983
Time:		2581776ms
Iterations:	68719476735
----------------------------------
Capacity:	1000
#Items:		35
Weights:	393	920	639	437	760	671	586	277	683	819	380	576	848	525	400	944	318	883	155	633	884	438	273	879	547	799	753	135	221	752	195	222	983	507	972	
Profits:	690	710	453	181	893	945	441	826	621	143	18	108	270	795	47	200	113	720	191	970	311	510	735	433	346	239	590	621	698	52	898	105	799	489	913	
Selected:	0	0	0	0	0	0	0	1	0	0	0	0	0	0	0	0	0	0	1	0	0	0	0	0	0	0	0	1	1	0	1	0	0	0	0	
Total profit:	3234
Total weight:	983
Time:		0ms
Iterations:	5399